…
    ##                beer id brewery name brewery id beer ABV profile name taste
    ## missing values 0       15           0          67785    348          0    
    ##                palate beer style appearance aroma overall review time
    ## missing values 0      0          0          0     0       0          
    ##                beer name
    ## missing values 0

``` r
# glance over the missing values
beer_reviews %>%
  select(profile_name) %>%
  filter(is.na(profile_name))
```

    ## # A tibble: 348 x 1
    ##    profile_name
    ##           <chr>
    ##  1         <NA>
    ##  2         <NA>
    ##  3         <NA>
    ##  4         <NA>
    ##  5         <NA>
    ##  6         <NA>
    ##  7         <NA>
    ##  8         <NA>
    ##  9         <NA>
    ## 10         <NA>
    ## # ... with 338 more rows
…
``` r
# summarize the new beer styles by calling distinct()
beer_reviews %>%
  group_by(general_beer_style) %>%
  summarise(style_count = n()) %>%
  arrange(desc(style_count))
```

    ## # A tibble: 24 x 2
    ##    general_beer_style style_count
    ##                 <chr>       <int>
    ##  1                ale      577361
    ##  2                ipa      216034
    ##  3              stout      182268
    ##  4              lager      132481
    ##  5              wheat       80947
    ##  6             porter       73249
    ##  7           trappist       68397
    ##  8               bock       46501
    ##  9         barleywine       40459
    ## 10            pilsner       40330
    ## # ... with 14 more rows
…
