…
            taste_sd      = sd(taste), 
            aroma_sd      = sd(aroma), 
            appearance_sd = sd(appearance), 
            palate_sd     = sd(palate)) %>%
  filter(beer_name_count >= 5, 
         between(overall_sd, 0, 0.30), 
         between(taste_sd, 0, 0.30), 
         between(aroma_sd, 0, 0.30), 
         between(appearance_sd, 0, 0.30), 
         between(palate_sd, 0, 0.30)) %>%
  arrange(overall_sd, taste_sd, aroma_sd, appearance_sd, palate_sd) %>%
  print(n = 20)
```

    ## # A tibble: 75 x 8
    ## # Groups:   beer_name [75]
    ##                                                   beer_name
    ##                                                       <chr>
    ##  1                                  founders dirty darkness
    ##  2                                kelso industrial pale ale
    ##  3                                                red scare
    ##  4                                  starobrno cerne (black)
    ##  5                                                super wit
    ##  6                                    oak-aged cherry stout
    ##  7                                                   spooky
    ##  8                                                 rye not?
    ##  9                                     limited edition 2004
    ## 10     st. denis pilzenn imperialni (deni pilsner imperial)
    ## 11                              old bad cat barleywine 2008
    ## 12                 andechser dunkel naturtrüb jubiläumsbier
    ## 13                                                pale tail
    ## 14                                        sandy paws (2010)
    ## 15 pilot series passionfruit and dragonfruit berliner weiss
    ## 16                               chaos chaos imperial stout
    ## 17                                                      sfo
    ## 18                                             live oak ipa
    ## 19                     maduro oatmeal brown ale - blueberry
    ## 20                                       hotter than helles
    ## # ... with 55 more rows, and 7 more variables: general_beer_style <chr>,
    ## #   beer_name_count <int>, overall_sd <dbl>, taste_sd <dbl>,
    ## #   aroma_sd <dbl>, appearance_sd <dbl>, palate_sd <dbl>
…
    ##                    Palate SD 
    ## standard deviation 0.1034379 
    ## variance           0.01069939
    ## mean               0.6709814 
    ## median             0.6295702 
    ## max                0.8835709 
    ## min                0.5470604

We can find the least disliked beer style by looking at the mean of the overall (shown above). However, the standard deviation (1.00) is quite high in this case which implies disagreement and the ratings can vary by one point. Therefore, we cannot absolutely conclude that the low alcohol beer is rated the worst. Although, we can say that it is one the least appreaciated beer styles among others.

Also, we can find the beer styles which are relatively best rated (shown below).

### Beer Style

    ## # A tibble: 104 x 8
    ##                             beer_style style_count overall_sd overall_mean
    ##                                  <chr>       <int>      <dbl>        <dbl>
    ##  1                   american wild ale       17794  0.6542419     4.093262
    ##  2                              gueuze        6009  0.6413163     4.086287
    ##  3                    quadrupel (quad)       18086  0.6296276     4.071630
    ##  4                  lambic - unblended        1114  0.6567664     4.048923
    ##  5    american double / imperial stout       50705  0.6664566     4.029820
    ##  6              russian imperial stout       54129  0.6354456     4.023084
    ##  7                          weizenbock        9412  0.5983101     4.007969
    ##  8      american double / imperial ipa       85977  0.6367582     3.998017
    ##  9                    flanders red ale        6664  0.6752854     3.992722
    ## 10                            rye beer       10130  0.5930640     3.981737
    ## 11          keller bier / zwickel bier        2591  0.6257269     3.981088
    ## 12                             eisbock        2663  0.6250778     3.977094
    ## 13                        american ipa      117586  0.6107604     3.965221
    ## 14                                gose         686  0.6221699     3.965015
    ## 15              saison / farmhouse ale       31480  0.6183095     3.962564
    ## 16                         belgian ipa       12471  0.5726129     3.958704
    ## 17                       baltic porter       11572  0.5905583     3.955410
    ## 18                          roggenbier         466  0.5313079     3.948498
    ## 19                       oatmeal stout       18145  0.6314181     3.941692
    ## 20                  american black ale       11446  0.5622348     3.934475
    ## 21                          hefeweizen       27908  0.6767538     3.929626
    ## 22                              dubbel       19983  0.6270035     3.921733
    ## 23                      english porter       11200  0.6361153     3.917946
    ## 24                              tripel       30328  0.6299255     3.914287
    ## 25             belgian strong dark ale       37743  0.6353371     3.913322
    ## 26                  flanders oud bruin        4995  0.6840799     3.902503
    ## 27                  berliner weissbier        3475  0.7678588     3.901151
    ## 28                             old ale       14703  0.6402962     3.899000
    ## 29                 american barleywine       26728  0.6206632     3.896756
    ## 30                     american porter       50477  0.6437006     3.895735
    ## 31             belgian strong pale ale       31490  0.6514504     3.895602
    ## 32                  milk / sweet stout       13166  0.6554527     3.892526
    ## 33                      lambic - fruit       10950  0.7297482     3.892283
    ## 34                      bière de garde        6729  0.6160419     3.880294
    ## 35              foreign / export stout        5972  0.6308640     3.877679
    ## 36              scotch ale / wee heavy       17441  0.6065514     3.874262
    ## 37                 american strong ale       31945  0.6956994     3.873501
    ## 38                          doppelbock       21699  0.6604465     3.872805
    ## 39                 munich helles lager        7870  0.6924057     3.869441
    ## 40                      american stout       24538  0.6710999     3.865311
    ## 41  american double / imperial pilsner        5435  0.6335278     3.858694
    ## 42                  american brown ale       25297  0.6226342     3.857434
    ## 43                        dunkelweizen        7122  0.6448806     3.856782
    ## 44             american pale ale (apa)       63469  0.6604517     3.852306
    ## 45                  english barleywine       13731  0.6728391     3.850594
    ## 46      california common / steam beer        4038  0.6472510     3.847821
    ## 47 extra special / strong bitter (esb)       17212  0.6195223     3.847025
    ## 48               english dark mild ale        2314  0.7312741     3.837511
    ## 49                         schwarzbier        9826  0.6367924     3.835030
    ## 50           dortmunder / export lager        4440  0.7259446     3.833108
    ## # ... with 54 more rows, and 4 more variables: taste_sd <dbl>,
    ## #   aroma_sd <dbl>, appearance_sd <dbl>, palate_sd <dbl>
…
Here we can find the summary statistics for the profile names columns.

Amount of profile names: 33,388

Out of these names, 19,821 of them submitted five or less reviews.

``` r
# number of profile names
beer_reviews %>% 
  select(profile_name) %>% 
  distinct()
```

    ## # A tibble: 33,388 x 1
    ##      profile_name
    ##             <chr>
    ##  1        stcules
    ##  2 johnmichaelsen
    ##  3        oline73
    ##  4      reidrover
    ##  5   alpinebryant
    ##  6  lordadmnelson
    ##  7   augustgarage
    ##  8        fodeeoz
    ##  9   madeinoregon
    ## 10        rawthar
    ## # ... with 33,378 more rows

``` r
# amount of reviews by each person
beer_reviews %>% 
  group_by(profile_name) %>% 
  tally(sort = TRUE)
```

    ## # A tibble: 33,388 x 2
    ##      profile_name     n
    ##             <chr> <int>
    ##  1 northyorksammy  5817
    ##  2  buckeyenation  4661
    ##  3    mikesgroove  4617
    ##  4      thorpe429  3518
    ##  5  womencantsail  3497
    ##  6    nerofiddled  3488
    ##  7   chaingangguy  3471
    ##  8       brentk56  3357
    ##  9       phyl21ca  3179
    ## 10         weswes  3168
    ## # ... with 33,378 more rows
…
``` r
profile_names # 33,388 total profile names
```

    ## # A tibble: 18,838 x 4
    ##      profile_name reviewed_amount overall_mean overall_sd
    ##             <chr>           <int>        <dbl>      <dbl>
    ##  1 northyorksammy            5817     3.629362  0.6295269
    ##  2  buckeyenation            4661     3.734714  0.7412904
    ##  3    mikesgroove            4617     4.086203  0.6362618
    ##  4      thorpe429            3518     3.735645  0.7271591
    ##  5  womencantsail            3497     3.546754  0.8250244
    ##  6    nerofiddled            3488     4.107081  0.5032886
    ##  7   chaingangguy            3471     3.547249  0.6857443
    ##  8       brentk56            3357     3.822163  0.6294877
    ##  9       phyl21ca            3179     3.355615  0.7594024
    ## 10         weswes            3168     3.856376  0.5034304
    ## # ... with 18,828 more rows
…
``` r
# find lowest activity by filtering review amount 
beer_reviews %>% 
  group_by(profile_name) %>%
  summarise(review_amount = n()) %>%
  arrange(desc(review_amount)) %>%
  filter(between(review_amount, 1, 5))
```

    ## # A tibble: 19,821 x 2
    ##       profile_name review_amount
    ##              <chr>         <int>
    ##  1       1001111.0             5
    ##  2         18alpha             5
    ##  3        24beer92             5
    ##  4         2cansam             5
    ##  5 3nlightenedfool             5
    ##  6   4theluvofbrew             5
    ##  7     513hooligan             5
    ##  8     619beerluvr             5
    ##  9           650gs             5
    ## 10             7.0             5
    ## # ... with 19,811 more rows
…
